Clase 3. Pasajeros y otras características del Metro en la CDMX
…
## tibble [301 × 5] (S3: tbl_df/tbl/data.frame)
##  $ Periodo                   : POSIXct[1:301], format: "2000-01-01" "2000-02-01" ...
##  $ Pasajeros_Millones        : num [1:301] 112 112 121 106 118 ...
##  $ TrenesEnServicio_Unidades : num [1:301] 259 258 261 261 266 268 268 270 266 264 ...
##  $ KilometrosRedEnServicio   : num [1:301] 191 191 190 190 190 190 190 190 190 190 ...
##  $ KilometrosRecorridos_Miles: num [1:301] 3258 3074 3308 3045 3277 ...

dim(Datos)

## [1] 301   5

Datos[ , 2]

## # A tibble: 301 × 1
##    Pasajeros_Millones
##                 <dbl>
##  1               112.
##  2               112.
##  3               121.
##  4               106.
##  5               118.
##  6               118.
##  7               115.
##  8               122.
##  9               117.
## 10               122.
## # ℹ 291 more rows

Datos[5 , ]

## # A tibble: 1 × 5
##   Periodo             Pasajeros_Millones TrenesEnServicio_Unidades
##   <dttm>                           <dbl>                     <dbl>
## 1 2000-05-01 00:00:00               118.                       266
## # ℹ 2 more variables: KilometrosRedEnServicio <dbl>,
## #   KilometrosRecorridos_Miles <dbl>

Datos[c(2:259) , 2]

## # A tibble: 258 × 1
##    Pasajeros_Millones
##                 <dbl>
##  1               112.
##  2               121.
##  3               106.
##  4               118.
##  5               118.
##  6               115.
##  7               122.
##  8               117.
##  9               122.
## 10               115.
## # ℹ 248 more rows

Datos[ , c(2:5)]

## # A tibble: 301 × 4
##    Pasajeros_Millones TrenesEnServicio_Unidades KilometrosRedEnServicio
##                 <dbl>                     <dbl>                   <dbl>
##  1               112.                       259                     191
##  2               112.                       258                     191
##  3               121.                       261                     190
##  4               106.                       261                     190
##  5               118.                       266                     190
##  6               118.                       268                     190
##  7               115.                       268                     190
##  8               122.                       270                     190
##  9               117.                       266                     190
## 10               122.                       264                     190
## # ℹ 291 more rows
## # ℹ 1 more variable: KilometrosRecorridos_Miles <dbl>

Datos[ , c(2, 3, 4, 5)]

## # A tibble: 301 × 4
##    Pasajeros_Millones TrenesEnServicio_Unidades KilometrosRedEnServicio
##                 <dbl>                     <dbl>                   <dbl>
##  1               112.                       259                     191
##  2               112.                       258                     191
##  3               121.                       261                     190
##  4               106.                       261                     190
##  5               118.                       266                     190
##  6               118.                       268                     190
##  7               115.                       268                     190
##  8               122.                       270                     190
##  9               117.                       266                     190
## 10               122.                       264                     190
## # ℹ 291 more rows
## # ℹ 1 more variable: KilometrosRecorridos_Miles <dbl>

Datos[c("Pasajeros_Millones", "TrenesEnServicio_Unidades")]

## # A tibble: 301 × 2
##    Pasajeros_Millones TrenesEnServicio_Unidades
##                 <dbl>                     <dbl>
##  1               112.                       259
##  2               112.                       258
##  3               121.                       261
##  4               106.                       261
##  5               118.                       266
##  6               118.                       268
##  7               115.                       268
##  8               122.                       270
##  9               117.                       266
## 10               122.                       264
## # ℹ 291 more rows
…
